{
	"index": [
		"animeow.me",
		"animeowl.net",
		"animeowl.us"
		"lightnovels.me",
		"mangago.me",
		"vyvymanga.net",
		"tenmanga.com",
		"nineanime.com",
		"es.ninemanga.com",
		"novelcool.com",
		"taadd.com",
		"niadd.com"
	],
	"fronts": [
		"portablegaming.co",
		"pandapama.com"
		"lady-first.me",
		"lady-first.cc",
		"you-him-me.com",
		"summonersky.com",
		"aovheroes.com",
		"aov-news.com",
		"glanceoflife.com",
		"yyzzbaby.com",
		"technologpython.com",
		"greenhomestyle.com"
	]
}